<svg xmlns="http://www.w3.org/2000/svg" xmlns:xlink="http://www.w3.org/1999/xlink" width="1270.95" height="427.76" viewBox="0 0 1270.95 427.76">
  <defs>
    <linearGradient id="linear-gradient" y1="213.88" x2="1270.95" y2="213.88" gradientUnits="userSpaceOnUse">
      <stop offset="0" stop-color="#9ef3c7"/>
      <stop offset="1" stop-color="#004bff"/>
    </linearGradient>
  </defs>
  <g id="Header">
    <path d="M307,0c-27,0-58.12,14.24-69.39,31.82L4.1,395.94c-11.28,17.58,1.52,31.82,28.56,31.82H1271V0Z" fill="url(#linear-gradient)"/>
  </g>
</svg>
