<svg xmlns="http://www.w3.org/2000/svg" width="25.22" height="35.96" viewBox="0 0 25.22 35.96">
  <g id="Header">
    <path d="M13.65,17.42a46,46,0,0,1-5.73-5.27C5.24,9.36,3.4,7.53,2.41,6.68A3.71,3.71,0,0,1,.91,3.86,3.78,3.78,0,0,1,2,1.16,3.55,3.55,0,0,1,4.65,0,3.88,3.88,0,0,1,7,.87a76.73,76.73,0,0,1,7.09,6.89,22.94,22.94,0,0,0,8,5.84q3.15,1.17,3.15,3.45c0,1.38-1,2.53-2.86,3.44a30.72,30.72,0,0,0-8.47,6.72q-6.42,6.72-7.65,7.73a3.85,3.85,0,0,1-2.47,1,3.62,3.62,0,0,1-2.63-1.14A3.66,3.66,0,0,1,0,32.14a3.71,3.71,0,0,1,1.24-2.65Q5.23,25.26,13.65,17.42Z" fill="#fff"/>
  </g>
</svg>
