<svg xmlns="http://www.w3.org/2000/svg" width="25.22" height="35.96" viewBox="0 0 25.22 35.96">
  <g id="Header">
    <path d="M11.57,18.54a46,46,0,0,1,5.73,5.27c2.68,2.79,4.52,4.62,5.51,5.47a3.71,3.71,0,0,1,1.5,2.82,3.78,3.78,0,0,1-1.12,2.7A3.55,3.55,0,0,1,20.57,36a3.86,3.86,0,0,1-2.32-.87,75.41,75.41,0,0,1-7.09-6.89,23,23,0,0,0-8-5.84Q0,21.19,0,18.91q0-2.07,2.86-3.44a30.84,30.84,0,0,0,8.46-6.72Q17.76,2,19,1a3.82,3.82,0,0,1,2.46-1,3.62,3.62,0,0,1,2.64,1.14,3.66,3.66,0,0,1,1.14,2.68A3.72,3.72,0,0,1,24,6.47Q20,10.7,11.57,18.54Z" fill="#fff"/>
  </g>
</svg>
