<?xml version="1.0" encoding="UTF-8"?>
<svg width="88px" height="88px" viewBox="0 0 88 88" version="1.1" xmlns="http://www.w3.org/2000/svg" xmlns:xlink="http://www.w3.org/1999/xlink">
    <title>DDCAD71E-BE16-4EC7-9D80-E8CDA5DF4503</title>
    <g id="00_Design-System" stroke="none" stroke-width="1" fill="none" fill-rule="evenodd">
        <g id="Design-System-Style" transform="translate(-34.000000, -1478.000000)" fill="#FF15D4">
            <g id="Icons" transform="translate(34.000000, 1365.000000)">
                <g id="4-Pillars" transform="translate(0.000000, 64.000000)">
                    <g id="neuroscience-magenta-88x88" transform="translate(0.000000, 49.000000)">
                        <g id="Group-4" transform="translate(12.320000, 4.400000)">
                            <path d="M30.6962456,78.7406771 C30.5571271,78.7406771 30.4199535,78.6873503 30.3168686,78.5869286 C30.295576,78.5674163 30.2754094,78.5462695 30.2587234,78.5256335 C30.1656705,78.4106031 30.1238019,78.2625755 30.1429448,78.1159781 C30.6571409,74.1576448 33.4339846,70.6513625 35.8839661,67.5579026 C36.5100509,66.7672983 37.1019446,66.0200093 37.6496152,65.278339 C37.6566787,65.1331718 37.7216825,64.9937255 37.8310119,64.8967772 C37.9506805,64.7906345 38.1107846,64.7392488 38.2692508,64.7621323 C40.2367703,65.0467458 42.117891,65.5809323 43.9371811,66.0973432 C44.5998114,66.2855191 45.2850651,66.4801309 45.9669406,66.6605428 C47.2231025,66.9930685 48.6910645,67.2629711 50.0564535,66.7416566 C52.2589083,65.9000753 52.2107952,64.2577761 52.1499884,62.178443 C52.1188684,61.1151779 52.0867248,60.0157487 52.3861522,58.9719958 C52.429454,58.8214143 52.5360194,58.696781 52.6782091,58.6304801 L53.9558683,58.0361223 C53.874895,57.7052311 53.7935121,57.376383 53.7121293,57.0476371 C53.6831591,56.9306657 53.6941125,56.8074626 53.7433517,56.697438 C53.9640578,56.2029911 54.4190851,55.8800682 54.9698268,55.8223487 C54.9730002,55.8215314 54.9763783,55.8205099 54.9796541,55.8195904 C54.84678,54.5966517 54.7099135,53.3349948 54.5814413,52.0657783 C54.5625031,51.8775002 54.6432717,51.6930021 54.7945722,51.5790954 C55.1575703,51.3059237 55.611062,51.0899608 56.0911696,50.8613302 C56.8239222,50.5123569 57.6545389,50.1169016 57.8351166,49.5946676 C57.9184445,49.3536758 57.8714574,49.0607875 57.6914938,48.6991466 C57.2945094,47.899246 56.7040488,47.1527742 56.078783,46.3625786 C55.6279528,45.7926366 55.1617674,45.2032845 54.7737914,44.5900274 C52.8650313,41.5682826 52.9635096,35.9913508 53.5166058,34.3455782 C54.0592604,32.7276949 54.3024875,30.2718058 54.262052,28.6821182 C54.1900871,25.785824 53.4815958,23.0739259 52.1566424,20.621408 C50.9127647,18.3192674 49.1598092,16.2994927 46.9464009,14.6179647 C41.31,10.335789 33.2992678,8.79912165 26.040124,10.6075305 C26.0358245,10.6085521 26.0314227,10.6096758 26.0271232,10.6105952 C26.0016335,10.6163161 23.420211,11.2045445 20.2609193,12.7863659 C17.3662497,14.2356878 13.3760341,16.8419541 10.8048485,21.0277943 C7.9891049,25.6120525 7.3902501,31.1737627 9.02517488,37.5582571 C10.7695314,44.3700802 14.5498919,50.3526833 18.2782493,55.8971287 C18.2857222,55.9036668 18.2925808,55.9100007 18.2995419,55.9165388 C18.4641502,56.0725347 18.5140036,56.3142416 18.424636,56.5224406 C16.8300443,60.235798 14.6677179,63.5576842 11.9978491,66.3961567 C11.7928054,66.6140607 11.4493596,66.6249916 11.2310079,66.4203682 C11.0124515,66.2157449 11.0014981,65.8730033 11.2066442,65.654895 C13.7198894,62.9831451 15.7690988,59.8662909 17.300734,56.3867741 C13.5451466,50.7966639 9.74881669,44.7578737 7.97385202,37.826423 C6.26256046,31.1439325 6.90543364,25.2991412 9.88435237,20.454379 C12.5960897,16.0440966 16.7759939,13.3155466 19.8048683,11.803193 C23.0254787,10.1951168 25.5986094,9.59708128 25.7833842,9.55529848 C33.3526017,7.67159886 41.7128194,9.28100305 47.603708,13.7562582 C52.4495182,17.43764 55.1994389,22.7287325 55.3469517,28.6550462 C55.3883085,30.2871296 55.1552158,32.8719426 54.5456123,34.6896479 C54.0704185,36.1034186 54.0117614,41.3530348 55.6916259,44.0123213 C56.0487891,44.5770532 56.4770982,45.1183909 56.9303852,45.6914998 C57.5627145,46.4906853 58.2165411,47.317045 58.6635836,48.2179803 C58.9749881,48.8435987 59.0415275,49.4257997 58.8608474,49.9478293 C58.5320403,50.8988223 57.4835837,51.3981728 56.5585834,51.8385779 C56.243596,51.9886486 55.9414047,52.1324877 55.6939804,52.280311 C55.8152869,53.4649404 55.9432473,54.6422143 56.0673177,55.783835 C56.1243369,56.3034128 55.7863166,56.7569963 55.272837,56.8645692 C55.2318897,56.8788714 55.174154,56.894093 55.1051577,56.8974642 C54.9841583,56.9055347 54.8899794,56.9429247 54.8207785,57.0108601 C54.8933576,57.3043613 54.965732,57.5977604 55.0373899,57.8911594 C55.1591058,58.377025 54.8408426,58.8193711 54.4792777,58.9874217 L53.3694001,59.5036284 C53.1813495,60.3287622 53.2084771,61.2516616 53.2346834,62.1468761 C53.2962067,64.2512379 53.366022,66.6365355 50.4443271,67.752923 C48.7807392,68.3881443 47.0290121,68.0621567 45.6887035,67.7072582 C44.9975124,67.5242924 44.3075498,67.3283525 43.6402106,67.1390529 C41.9134614,66.6486924 40.2750561,66.183565 38.538889,65.8994623 C37.9776034,66.6607471 37.3740397,67.4227469 36.7352612,68.22939 C34.2836418,71.3249953 31.7494111,74.5250065 31.2350102,78.1381465 C31.2569171,78.3318389 31.1727703,78.5307414 30.9997678,78.6476107 C30.9066126,78.7105403 30.8007637,78.7406771 30.6962456,78.7406771 L30.6962456,78.7406771 Z" id="Fill-41"></path>
                            <path d="M16.78263,25.5003776 C18.4370967,26.871346 24.5345275,31.482531 31.6799477,31.482531 C38.8349978,31.482531 44.9242641,26.8727434 46.57737,25.5009765 C44.9227987,24.1299083 38.8254725,19.5188231 31.6799477,19.5188231 C24.5250022,19.5188231 18.4357359,24.1286107 16.78263,25.5003776 M31.6799477,32.5406771 C27.06668,32.5406771 22.9316648,30.7293219 20.2751603,29.2098278 C17.4075298,27.5695567 15.6422141,25.9486498 15.5685241,25.8804757 C15.4608152,25.7808597 15.4,25.6438127 15.4,25.5006771 C15.4,25.3575414 15.4608152,25.2204944 15.5685241,25.1208784 C15.6422141,25.0527043 17.4075298,23.4317974 20.2751603,21.7915263 C22.9316648,20.2720322 27.06668,18.4606771 31.6799477,18.4606771 C36.29332,18.4606771 40.4282306,20.2720322 43.084735,21.7915263 C45.9524702,23.4317974 47.7176812,25.0527043 47.7913713,25.1208784 C47.8990801,25.2204944 47.96,25.3575414 47.96,25.5006771 C47.96,25.6438127 47.8990801,25.7808597 47.7913713,25.8804757 C47.7176812,25.9486498 45.9524702,27.5695567 43.084735,29.2098278 C40.4282306,30.7293219 36.29332,32.5406771 31.6799477,32.5406771" id="Fill-43"></path>
                            <path d="M31.2399482,19.5598087 C27.9640466,19.5598087 25.2989486,22.2248479 25.2989486,25.5006771 C25.2989486,28.7766099 27.9640466,31.4416491 31.2399482,31.4416491 C34.5158497,31.4416491 37.1810514,28.7766099 37.1810514,25.5006771 C37.1810514,25.4324544 37.1798072,25.364128 37.1775262,25.2959053 C36.7474442,25.4284108 36.3018096,25.4953893 35.8457029,25.4953893 C33.3274217,25.4953893 31.2786224,23.4465315 31.2786224,20.9282022 C31.2786224,20.4603896 31.3486092,20.004293 31.4873386,19.5650965 C31.4045986,19.5615713 31.322066,19.5598087 31.2399482,19.5598087 M31.2399482,32.5406771 C27.3581163,32.5406771 24.2,29.3825268 24.2,25.5006771 C24.2,21.6188273 27.3581163,18.4606771 31.2399482,18.4606771 C31.6114486,18.4606771 31.9887553,18.4909522 32.3612925,18.5506729 C32.5352746,18.5785634 32.6853056,18.6880514 32.7648313,18.8452332 C32.8443571,19.0025186 32.843735,19.1882128 32.762965,19.3448762 C32.5073835,19.8415124 32.3776746,20.3742299 32.3776746,20.9282022 C32.3776746,22.8405109 33.9334557,24.3962576 35.8457029,24.3962576 C36.3903559,24.3962576 36.9158273,24.2700768 37.407394,24.0212402 C37.5643718,23.9416125 37.7502775,23.9422346 37.907048,24.0228991 C38.0637148,24.10346 38.1721685,24.2543171 38.1988153,24.4285027 C38.2527311,24.7810211 38.28,25.141834 38.28,25.5006771 C38.28,29.3825268 35.1218837,32.5406771 31.2399482,32.5406771" id="Fill-45"></path>
                            <path d="M31.226272,6.06068351 C30.7969787,6.06068351 30.4489387,5.80423298 30.4489387,5.48791158 L30.4489387,0.57288 C30.4489387,0.256450526 30.7969787,-2.34479103e-15 31.226272,-2.34479103e-15 C31.6555653,-2.34479103e-15 32.0036053,0.256450526 32.0036053,0.57288 L32.0036053,5.48791158 C32.0036053,5.80423298 31.6555653,6.06068351 31.226272,6.06068351" id="Fill-47"></path>
                            <path d="M21.1141449,7.90067705 C20.9320525,7.90067705 20.7611463,7.75740987 20.6952903,7.52653094 L19.3870006,2.94348228 C19.3028091,2.6485835 19.4220733,2.32237184 19.6534526,2.21502869 C19.8842432,2.1079 20.1406024,2.25963883 20.2247938,2.55475207 L21.5329994,7.13780073 C21.6171909,7.43269951 21.4979267,7.75891117 21.2665474,7.86625432 C21.2163353,7.88952452 21.1648616,7.90067705 21.1141449,7.90067705" id="Fill-50"></path>
                            <path d="M12.6734048,12.7406771 C12.5229935,12.7406771 12.3736756,12.6720836 12.2694911,12.538944 L9.3632607,8.82818488 C9.17626545,8.58927927 9.20529395,8.23321084 9.42817719,8.03286244 C9.65125925,7.83230102 9.98349644,7.86350893 10.1705911,8.10241455 L13.0768215,11.8132802 C13.2637174,12.0520793 13.2346889,12.4081477 13.0118056,12.6086026 C12.9130888,12.6973268 12.7928989,12.7406771 12.6734048,12.7406771" id="Fill-52"></path>
                            <path d="M5.64625532,21.5406771 C5.55921347,21.5406771 5.47091294,21.5195229 5.39006762,21.4749976 L1.57668559,19.3743624 C1.33124499,19.2391237 1.24710776,18.9397324 1.38885334,18.7055587 C1.53059892,18.4712926 1.84429814,18.3912024 2.08993238,18.5263488 L5.90331441,20.6269839 C6.14875501,20.7622227 6.23289224,21.061614 6.09114666,21.2957877 C5.99606869,21.4529196 5.82363093,21.5406771 5.64625532,21.5406771" id="Fill-54"></path>
                            <path d="M2.58572015,30.7806771 C2.55715723,30.7806771 2.52831429,30.7775321 2.49928465,30.7708792 L0.408964468,30.2932024 C0.13985698,30.231754 -0.0398280414,29.8992309 0.00759013553,29.550499 C0.0550083125,29.2017672 0.312167914,28.9691583 0.580715345,29.0304857 L2.67103553,29.5080416 C2.94014302,29.569611 3.11982804,29.902134 3.07240986,30.2508659 C3.03012555,30.5618578 2.82122421,30.7806771 2.58572015,30.7806771" id="Fill-56"></path>
                            <path d="M41.8058551,7.90067705 C41.7551384,7.90067705 41.7036647,7.88952449 41.6534526,7.86625425 C41.4220733,7.75891087 41.3028091,7.43269853 41.3870006,7.13779915 L42.6952062,2.55474095 C42.7794817,2.25973433 43.0355886,2.10788795 43.2665474,2.21501686 C43.4979267,2.32236023 43.6171909,2.64857257 43.5329994,2.94347196 L42.2247097,7.52653016 C42.1588537,7.75730233 41.9879475,7.90067705 41.8058551,7.90067705" id="Fill-58"></path>
                            <path d="M50.6865819,12.7406771 C50.5670909,12.7406771 50.446904,12.6973268 50.3481897,12.6086026 C50.125312,12.4081477 50.0962842,12.0520793 50.2831754,11.8132802 L53.1894323,8.10241455 C53.3766216,7.86350893 53.7087511,7.83230102 53.9318275,8.03286244 C54.1547052,8.23321084 54.183733,8.58927927 53.9967424,8.82818488 L51.0904855,12.538944 C50.9863037,12.6720836 50.8369896,12.7406771 50.6865819,12.7406771" id="Fill-60"></path>
                            <path d="M56.8337447,21.5406771 C56.6563691,21.5406771 56.4839313,21.4529179 56.3888533,21.2957828 C56.2471078,21.0616045 56.331245,20.7622072 56.5766856,20.6269658 L60.3900676,18.5262889 C60.6357019,18.3912322 60.9494979,18.471324 61.0911467,18.7055023 C61.2328922,18.9396807 61.148755,19.2390779 60.9033144,19.3743194 L57.0899324,21.4749963 C57.0090871,21.5195225 56.9207865,21.5406771 56.8337447,21.5406771" id="Fill-62"></path>
                            <path d="M60.7742798,30.7806771 C60.5386825,30.7806771 60.3298745,30.5618612 60.2875901,30.2508741 C60.240172,29.9021477 60.419857,29.5696298 60.6889645,29.5080614 L62.7792847,29.030513 C63.0487655,28.9690655 63.3049917,29.2019127 63.3524099,29.5505182 C63.399828,29.8992446 63.220143,30.2317625 62.9510355,30.29321 L60.8607153,30.7708793 C60.8316857,30.7775321 60.8027494,30.7806771 60.7742798,30.7806771" id="Fill-64"></path>
                        </g>
                    </g>
                </g>
            </g>
        </g>
    </g>
</svg>