<?xml version="1.0" encoding="UTF-8"?>
<svg width="34px" height="34px" viewBox="0 0 34 34" version="1.1" xmlns="http://www.w3.org/2000/svg" xmlns:xlink="http://www.w3.org/1999/xlink">
    <title>2447D44F-9E69-42C4-8B3B-138F73BB02BF</title>
    <g id="00_Design-System" stroke="none" stroke-width="1" fill="none" fill-rule="evenodd">
        <g id="Design-System-Style" transform="translate(-852.000000, -1471.000000)">
            <g id="Icons" transform="translate(34.000000, 1365.000000)">
                <g id="Others" transform="translate(613.000000, 64.000000)">
                    <g id="icon/essential/remove/large" transform="translate(205.000000, 42.000000)">
                        <path d="M20.1934846,17 L26.8094815,23.6159969 C27.1885062,23.9950216 27.1885062,24.6079126 26.8094815,24.9869372 L24.9869372,26.8094815 C24.6079126,27.1885062 23.9950216,27.1885062 23.6159969,26.8094815 L17,20.1934846 L10.3840031,26.8094815 C10.0049784,27.1885062 9.39208744,27.1885062 9.01306276,26.8094815 L7.19051852,24.9869372 C6.81149383,24.6079126 6.81149383,23.9950216 7.19051852,23.6159969 L13.8065154,17 L7.19051852,10.3840031 C6.81149383,10.0049784 6.81149383,9.39208744 7.19051852,9.01306276 L9.01306276,7.19051852 C9.39208744,6.81149383 10.0049784,6.81149383 10.3840031,7.19051852 L17,13.8065154 L23.6159969,7.19051852 C23.9950216,6.81149383 24.6079126,6.81149383 24.9869372,7.19051852 L26.8094815,9.01306276 C27.1885062,9.39208744 27.1885062,10.0049784 26.8094815,10.3840031 L20.1934846,17 Z" id="Color" fill="#FF15D8" fill-rule="nonzero"></path>
                        <rect id="grid" x="0" y="0" width="34" height="34"></rect>
                    </g>
                </g>
            </g>
        </g>
    </g>
</svg>