<svg id="pinpoint-icon" data-name="icon-pinpoint" xmlns="http://www.w3.org/2000/svg"  viewBox="0 0 40 40">
	<title>Pinpoint</title>
	<path d="M30.8,13.58a12.56,12.56,0,0,1-1.86,6.06q-1.74,2.9-3.42,5.22a33.05,33.05,0,0,0-4.28,8.36,17.5,17.5,0,0,0-.88,3.52c-.08.24-.19.36-.32.36s-.23-.12-.28-.36a23.78,23.78,0,0,0-1-3.52,36.34,36.34,0,0,0-4.26-8.36,54.94,54.94,0,0,1-4-6A10.75,10.75,0,0,1,9.2,13.58,10.63,10.63,0,0,1,12.34,6,10.79,10.79,0,0,1,20,2.9,10.93,10.93,0,0,1,27.62,6,10.56,10.56,0,0,1,30.8,13.58ZM20,18.06a4,4,0,0,0,3-1.26,4.19,4.19,0,0,0,1.16-3A3.92,3.92,0,0,0,23,10.88,4.19,4.19,0,0,0,20,9.7a4.06,4.06,0,0,0-4,4.08,4.38,4.38,0,0,0,1.2,3A3.87,3.87,0,0,0,20,18.06Z"/>
</svg>