<svg id="Layer_1" data-name="Layer 1" xmlns="http://www.w3.org/2000/svg" width="83.53" height="69.89" viewBox="0 0 83.53 69.89">
  <path d="M83.53,34.5a12.84,12.84,0,0,0-6-10.85A9.55,9.55,0,0,0,68.94,10a9.75,9.75,0,0,0-3.21.56A11.2,11.2,0,0,0,45.37,5.62,8.33,8.33,0,0,0,32.74,3.91a8.34,8.34,0,0,0-15.4,4.21A9.58,9.58,0,0,0,12.84,7,9.69,9.69,0,0,0,6.06,23.61,12.83,12.83,0,1,0,21.64,43.83,8.33,8.33,0,0,0,33.42,46,12.69,12.69,0,0,0,49.66,57.63h0s0,.09,0,.13,0,.09,0,.13,0,.09,0,.13l.06.18s0,.09,0,.13a.5.5,0,0,0,0,.13l0,.14a.69.69,0,0,0,.05.13.78.78,0,0,0,0,.14.69.69,0,0,0,.05.13.58.58,0,0,0,0,.14.5.5,0,0,0,0,.13.49.49,0,0,0,0,.11l0,.1,0,.1a.49.49,0,0,0,0,.11l0,.1a.31.31,0,0,0,.05.1.49.49,0,0,0,0,.11l0,.1s0,.07,0,.1a.31.31,0,0,0,.05.1.49.49,0,0,0,0,.11l0,.1a.47.47,0,0,0,.05.1.42.42,0,0,0,0,.1l0,.1a1966866193406.81,1966866193406.81,0,0,1,.1.2,1,1,0,0,0,0,.1l.05.1a.93.93,0,0,0,0,.1l0,.1a.93.93,0,0,0,.05.1l0,.1a.93.93,0,0,0,.05.1s0,.07,0,.1l0,.1a.41.41,0,0,1,.05.09l.06.1a.31.31,0,0,0,.05.1.93.93,0,0,0,0,.1.41.41,0,0,0,.05.09.93.93,0,0,0,0,.1l.06.09a.31.31,0,0,0,0,.1.93.93,0,0,0,0,.1l.06.09A.41.41,0,0,0,52,63a.31.31,0,0,0,0,.1l.06.09a.47.47,0,0,0,0,.1.41.41,0,0,0,0,.09l.06.09a.41.41,0,0,0,.05.09l0,.09.06.1a.41.41,0,0,0,0,.09l.06.09a.41.41,0,0,0,0,.09l.06.09a.22.22,0,0,0,0,.08.7.7,0,0,0,.06.09.41.41,0,0,0,0,.09l.05.09.06.09a.35.35,0,0,0,.05.08l.06.09a.22.22,0,0,0,.05.08l.06.09a.22.22,0,0,0,.05.08l.06.09a.22.22,0,0,0,0,.08l0,.09.06.08a.35.35,0,0,0,0,.08l.06.08a.22.22,0,0,0,.05.08l.06.08a9231767036350.3,9231767036350.3,0,0,0,.1.16l.06.08a.35.35,0,0,0,0,.08l0,.08.06.07a.22.22,0,0,0,.05.08.35.35,0,0,0,0,.08l0,.07.06.08,0,.07.05.07,0,.08.05.07,0,.07.06.07,0,.07.05.07,0,.07,0,.07.05.06a.18.18,0,0,0,0,.07l.05.07,0,.06,0,.07,0,.06.05.06,0,.07,0,.06.05.06,0,.06,0,.06.05.06,0,0,0,.06a.21.21,0,0,0,0,.06l0,0,.05.06,0,0,0,.06,0,0a18473772267506.26,18473772267506.26,0,0,0,.2.25l0,.05,0,0s0,0,0,0l0,.05,0,0a.08.08,0,0,0,0,0l0,0s0,0,0,0l0,0,0,0,0,0,0,0,0,0h0l0,0h0l0,0h0l0,0,0,0,0,0s0,0,0,0l0,0,0,0s0,0,0,0l0,0s0,0,0,0l0,0,0,0,0,0a0,0,0,0,0,0,0,0,0,0,0,0,0,0,0,0,0,0,0,0,0l0,0s0,0,0,0v0h0v0H57a.09.09,0,0,0,.07,0h0l.09,0h0a1,1,0,0,0,.34,0h.07L58,69.8l.41-.13h0l0,0,.46-.19.27-.14.27-.15a5.51,5.51,0,0,0,.69-.46,1.93,1.93,0,0,0,.68-.82.36.36,0,0,0,0-.14v0h0l0-.08h0v0h0v0h0v0h0s0,0,0,0a.21.21,0,0,0,0-.06s0,0,0,0,0,0,0,0l0,0s0,0,0,0l0,0s0,0,0,0l0,0,0,0,0,0s0,0,0,0,0,0,0,0,0,0,0,0a.05.05,0,0,1,0,0l0,0s0,0,0,0l0,0s0,0,0,0l0,0,0,0a.05.05,0,0,1,0,0l0,0a.08.08,0,0,1,0,0l0,0,0-.05a.08.08,0,0,1,0,0l0,0,0,0,0,0,0,0,0-.05,0,0,0,0,0,0,0,0,0-.05,0-.06,0-.05,0-.06,0-.05,0-.06,0-.06,0,0,0-.06a.21.21,0,0,0,0-.06l0-.06a.21.21,0,0,0,0-.06l0-.06a.43.43,0,0,0,0-.07.21.21,0,0,0,0-.06l0-.06a.43.43,0,0,0,0-.07.21.21,0,0,0,0-.06l0-.07a.43.43,0,0,1,0-.07l0-.08-.05-.09,0-.07,0-.07a.21.21,0,0,0,0-.06.3.3,0,0,0,0-.08l0-.07a.16.16,0,0,1,0-.07,940727345511.37,940727345511.37,0,0,1-.08-.14l0-.07,0-.08a.25.25,0,0,1,0-.07.3.3,0,0,1,0-.08.25.25,0,0,1,0-.07.3.3,0,0,1,0-.08.25.25,0,0,1,0-.07.56.56,0,0,0-.05-.08,2622488257873.12,2622488257873.12,0,0,0-.08-.16.25.25,0,0,0,0-.07.2.2,0,0,0,0-.08,2622488257878.75,2622488257878.75,0,0,1-.08-.16.2.2,0,0,0,0-.08.59.59,0,0,0,0-.08l0-.09a.59.59,0,0,1,0-.08.2.2,0,0,1,0-.08.3.3,0,0,1,0-.08.59.59,0,0,1,0-.08l-.05-.09a.3.3,0,0,0,0-.08.36.36,0,0,0,0-.09.59.59,0,0,0,0-.08.36.36,0,0,0,0-.09l0-.08a.36.36,0,0,0,0-.09l0-.08a1037438584018.63,1037438584018.63,0,0,1-.08-.18.59.59,0,0,0,0-.08,2766502890704.64,2766502890704.64,0,0,1-.08-.18l0-.09,0-.08,0-.09a2489852601652.49,2489852601652.49,0,0,0-.12-.27l0-.09a.36.36,0,0,1,0-.09,1037438584018.48,1037438584018.48,0,0,1-.08-.18l0-.09a.36.36,0,0,0,0-.09.42.42,0,0,0,0-.1l0-.09a.36.36,0,0,0,0-.09v0a.36.36,0,0,0,0-.09.29.29,0,0,0,0-.1l0-.09,0-.09,0-.09a.69.69,0,0,0,0-.1.32.32,0,0,0,0-.09l0-.09,0-.09a.3.3,0,0,0,0-.1.32.32,0,0,0,0-.09l0-.09,0-.1,0-.09,0-.09,0-.1,0-.09a.22.22,0,0,0,0-.1.29.29,0,0,0,0-.09l0-.09,0-.1a.29.29,0,0,0,0-.09.56.56,0,0,0,0-.12l0-.12a.5.5,0,0,0,0-.13l0-.12,0-.12,0-.12,0-.12,0-.12,0-.12a.43.43,0,0,0,0-.11l0-.12a.43.43,0,0,0,0-.11s0-.08,0-.11l0-.12a1354591042297.15,1354591042297.15,0,0,0,0-.22s0-.07,0-.1,0-.08,0-.11,0-.07,0-.11,0-.07,0-.1,0-.07,0-.11v-.06A12.81,12.81,0,0,0,76.32,46,12.82,12.82,0,0,0,83.53,34.5Z" fill="#ff15d8"/>
</svg>
