<svg id="Layer_1" data-name="Layer 1" xmlns="http://www.w3.org/2000/svg" width="71.37" height="71.59" viewBox="0 0 71.37 71.59">
  <path d="M71.32,35.93c1.11,18.34-16.8,35.82-35.49,35.65A36.17,36.17,0,0,1,0,35.74,35.57,35.57,0,0,1,35.79,0C56.06.21,72.19,17,71.32,35.93Z" fill="#ff15d8"/>
  <path d="M62.39,34.13H44.73a7.92,7.92,0,0,0-.42-1.66l15.22-8.79A1.54,1.54,0,0,0,58,21l-15.2,8.77a9.23,9.23,0,0,0-1.25-1.25l8.75-15.14a1.55,1.55,0,1,0-2.68-1.55L38.86,27a9.31,9.31,0,0,0-1.74-.47V9.09a1.55,1.55,0,1,0-3.09,0v17.4a8.81,8.81,0,0,0-1.78.48L23.58,12A1.55,1.55,0,1,0,20.9,13.5l8.69,15.05a9,9,0,0,0-1.28,1.33l-15-8.68a1.55,1.55,0,0,0-1.55,2.68l15.1,8.72a9.21,9.21,0,0,0-.41,1.76H9a1.55,1.55,0,0,0,0,3.09H26.51A9.62,9.62,0,0,0,27,39.13L11.84,47.9a1.55,1.55,0,0,0,1.55,2.68l15.3-8.83a9,9,0,0,0,1.23,1.16L21.09,58.2a1.55,1.55,0,0,0,2.68,1.55l8.86-15.36a8.92,8.92,0,0,0,1.62.4v17.7a1.55,1.55,0,1,0,3.09,0V44.74a9.52,9.52,0,0,0,1.57-.49l8.88,15.38a1.55,1.55,0,1,0,2.68-1.54L41.55,42.63a10.23,10.23,0,0,0,1.14-1.14l15.4,8.9a1.55,1.55,0,0,0,1.55-2.68L44.28,38.84a7,7,0,0,0,.44-1.61H62.39a1.55,1.55,0,0,0,0-3.1Z" fill="#fff"/>
</svg>
